<svg width="404" height="327" viewBox="0 0 404 327" fill="none" xmlns="http://www.w3.org/2000/svg">
<path d="M145.019 124.593C145.019 124.593 152.75 122.408 155.776 97.8707C158.044 79.4507 155.776 81.0641 155.776 81.0641C155.776 81.0641 155.515 70.3079 141.019 67.955C126.524 65.602 123.171 74.3415 121.826 78.3751C120.482 82.4087 115.44 99.8875 115.44 99.8875C115.44 99.8875 110.062 92.4926 107.709 95.1817C105.356 97.8707 104.347 102.577 113.759 107.282L111.406 130.476C111.406 130.476 126.532 170.475 113.759 192.996C100.986 215.517 65.1878 227.618 28.3813 224.593C-8.42518 221.567 1.1546 185.937 10.5663 174.509C19.978 163.08 37.1208 164.425 39.4737 156.022C41.8266 147.618 35.104 125.434 53.5913 117.703C72.0786 109.972 93.2549 113.333 98.633 101.568C104.011 89.8036 108.717 64.5936 130.902 61.5684C153.086 58.5432 157.792 68.2911 160.818 74.3415C163.843 80.3919 157.792 99.5514 160.818 106.946C163.843 114.341 173.616 138.434 150.414 143.022L145.019 124.593Z" fill="#80BC00"/>
<path d="M111.759 83.165C111.759 83.165 123.154 87.3835 133.095 77.8625C139.263 71.9466 154.111 75.9718 156.792 72.6609C162.498 65.6021 125.876 56.9467 111.759 83.165Z" fill="#80BC00"/>
<path d="M152.582 73.8372C152.582 73.8372 157.834 80.7111 156.431 91.8455C155.027 102.98 152.414 121.022 144.011 125.828C144.011 125.828 134.935 130.812 125.523 119.887" stroke="#80BC00" stroke-width="3" stroke-miterlimit="10" stroke-linecap="round" stroke-linejoin="round"/>
<path d="M111.91 181.568C111.91 181.568 134.91 202.24 147.607 189.635C160.313 177.03 161.826 153.669 161.826 153.669" stroke="#80BC00" stroke-width="3" stroke-miterlimit="10" stroke-linecap="round" stroke-linejoin="round"/>
<path d="M25.6929 221.904L13.0879 266.273C13.0879 266.273 51.7935 273.878 73.9783 271.357" stroke="#80BC00" stroke-width="3" stroke-miterlimit="10" stroke-linecap="round" stroke-linejoin="round"/>
<path d="M13.0869 257.702L2.00293 263.752V276.861C2.00293 276.861 5.52392 285.937 28.7171 287.449C51.9102 288.962 72.0781 288.122 72.0781 288.122" stroke="#80BC00" stroke-width="3" stroke-miterlimit="10" stroke-linecap="round" stroke-linejoin="round"/>
<path d="M75.6086 251.147C75.6086 251.147 71.575 304.088 68.5498 325.264" stroke="#80BC00" stroke-width="3" stroke-miterlimit="10" stroke-linecap="round" stroke-linejoin="round"/>
<path d="M13.0879 284.617L19.6425 325.264" stroke="#80BC00" stroke-width="3" stroke-miterlimit="10" stroke-linecap="round" stroke-linejoin="round"/>
<path d="M196.615 206.273C196.615 206.273 216.279 301.063 216.783 316.693" stroke="#80BC00" stroke-width="3" stroke-miterlimit="10" stroke-linecap="round" stroke-linejoin="round"/>
<path d="M206.7 257.702L241.153 212.492C241.153 212.492 205.187 167.45 197.792 159.383C190.397 151.316 170.229 153.669 170.229 153.669H154.095L145.02 125.829" stroke="#80BC00" stroke-width="3" stroke-miterlimit="10" stroke-linecap="round" stroke-linejoin="round"/>
<path d="M236.178 206.273H244.514L252.582 215.853C252.582 215.853 254.329 221.399 244.38 234.004C234.43 246.609 216.783 267.281 216.783 267.281L207.641 261.483" stroke="#80BC00" stroke-width="3" stroke-miterlimit="10" stroke-linecap="round" stroke-linejoin="round"/>
<path d="M221.708 261.483C221.708 261.483 239.716 286.945 252.708 289.466C265.699 291.987 276.792 290.475 286.876 269.802C296.96 249.13 341.329 173.685 341.329 173.685C341.329 173.685 339.817 164.929 362.505 164.929C385.194 164.929 403.346 164.425 395.278 159.887C387.211 155.349 316.43 151.484 309.472 153.669C302.514 155.854 298.976 157.87 296.455 164.425C293.934 170.98 261.666 236.777 261.666 236.777C261.666 236.777 259.649 242.072 256.12 239.551C252.59 237.03 247.943 229.072 247.943 229.072" stroke="#80BC00" stroke-width="3" stroke-miterlimit="10" stroke-linecap="round" stroke-linejoin="round"/>
<path d="M341.614 153.669C341.614 153.669 370.564 145.324 384.681 143.022C398.799 140.727 405.353 146.383 400.311 148.341C395.269 150.299 368.026 155.492 368.026 155.492" stroke="#80BC00" stroke-width="3" stroke-miterlimit="10" stroke-linecap="round" stroke-linejoin="round"/>
<path d="M317.119 153.038C317.119 153.038 344.497 142.803 364.329 147.534" stroke="#80BC00" stroke-width="3" stroke-miterlimit="10" stroke-linecap="round" stroke-linejoin="round"/>
<path d="M143.516 90.8793C143.516 90.8793 146.541 88.8457 148.81 89.6356" stroke="#80BC00" stroke-width="2" stroke-miterlimit="10" stroke-linecap="round" stroke-linejoin="round"/>
<path d="M139.305 83.4171C139.305 83.4171 129.893 81.7364 125.523 87.1145" stroke="#80BC00" stroke-width="2" stroke-miterlimit="10" stroke-linecap="round" stroke-linejoin="round"/>
<path d="M145.02 83.711C145.02 83.711 151.801 82.9547 157.49 87.6606" stroke="#80BC00" stroke-width="2" stroke-miterlimit="10" stroke-linecap="round" stroke-linejoin="round"/>
<path d="M131.641 96.0051C133.409 96.0051 134.843 94.5717 134.843 92.8035C134.843 91.0352 133.409 89.6018 131.641 89.6018C129.873 89.6018 128.439 91.0352 128.439 92.8035C128.439 94.5717 129.873 96.0051 131.641 96.0051Z" fill="#80BC00"/>
<path d="M147.415 95.0725C148.853 95.0725 150.02 93.7519 150.02 92.1229C150.02 90.4939 148.853 89.1733 147.415 89.1733C145.976 89.1733 144.81 90.4939 144.81 92.1229C144.81 93.7519 145.976 95.0725 147.415 95.0725Z" fill="#80BC00"/>
<path d="M141.574 114.173C141.574 114.173 137.742 113.022 132.6 112.199C127.457 111.375 131.238 109.728 135.684 110.703C140.129 111.694 146.86 114.635 141.574 114.173Z" fill="#80BC00"/>
<path d="M142.792 96.0474C142.792 96.0474 148.179 101.904 145.389 101.904" stroke="#80BC00" stroke-width="2" stroke-miterlimit="10" stroke-linecap="round" stroke-linejoin="round"/>
<path d="M126.885 92.123C126.885 92.123 129.582 87.7197 133.986 90.6272" stroke="#80BC00" stroke-width="2" stroke-miterlimit="10" stroke-linecap="round" stroke-linejoin="round"/>
<rect x="226" y="33" width="164" height="89" rx="10" fill="#F2F8E5"/>
<rect x="235.5" y="23.5" width="162" height="89" rx="8.5" stroke="#80BC00" stroke-width="3"/>
<path d="M296.627 84.678H290.786V94H284.709V84.678H265.18V79.722L284.591 51.697H290.786V79.368H296.627V84.678ZM284.709 67.922C284.709 66.0733 284.748 64.3427 284.827 62.73C284.906 61.078 284.965 59.7013 285.004 58.6H284.768C284.453 59.3867 284.06 60.193 283.588 61.019C283.155 61.845 282.703 62.5727 282.231 63.202L271.08 79.368H284.709V67.922ZM328.357 72.878C328.357 77.4407 327.865 81.3347 326.882 84.56C325.938 87.7853 324.423 90.2633 322.339 91.994C320.254 93.7247 317.501 94.59 314.079 94.59C309.241 94.59 305.661 92.6823 303.341 88.867C301.059 85.0123 299.919 79.6827 299.919 72.878C299.919 68.3547 300.371 64.4803 301.276 61.255C302.22 57.9903 303.734 55.5123 305.819 53.821C307.903 52.0903 310.657 51.225 314.079 51.225C318.877 51.225 322.457 53.1327 324.817 56.948C327.177 60.724 328.357 66.034 328.357 72.878ZM306.173 72.878C306.173 78.3847 306.763 82.5147 307.943 85.268C309.123 87.982 311.168 89.339 314.079 89.339C316.95 89.339 318.995 87.982 320.215 85.268C321.434 82.554 322.044 78.424 322.044 72.878C322.044 67.4107 321.434 63.32 320.215 60.606C318.995 57.8527 316.95 56.476 314.079 56.476C311.168 56.476 309.123 57.8527 307.943 60.606C306.763 63.32 306.173 67.4107 306.173 72.878ZM363.154 84.678H357.313V94H351.236V84.678H331.707V79.722L351.118 51.697H357.313V79.368H363.154V84.678ZM351.236 67.922C351.236 66.0733 351.276 64.3427 351.354 62.73C351.433 61.078 351.492 59.7013 351.531 58.6H351.295C350.981 59.3867 350.587 60.193 350.115 61.019C349.683 61.845 349.23 62.5727 348.758 63.202L337.607 79.368H351.236V67.922Z" fill="#659500"/>
<path d="M72 55.4978C70.0109 55.4978 68.1032 56.288 66.6967 57.6945C65.2902 59.101 64.5 61.0086 64.5 62.9978C64.5 63.9923 64.1049 64.9462 63.4016 65.6494C62.6984 66.3527 61.7446 66.7478 60.75 66.7478C59.7554 66.7478 58.8016 66.3527 58.0984 65.6494C57.3951 64.9462 57 63.9923 57 62.9978C57.0004 60.244 57.7589 57.5434 59.1924 55.1921C60.6258 52.8407 62.6789 50.9294 65.1266 49.6675C67.5743 48.4056 70.3221 47.8419 73.0689 48.0381C75.8157 48.2344 78.4555 49.183 80.699 50.78C82.9424 52.3771 84.7029 54.5609 85.7875 57.0921C86.8722 59.6233 87.239 62.4043 86.848 65.1302C86.4569 67.8561 85.323 70.4217 83.5704 72.5459C81.8179 74.6701 79.5145 76.2709 76.9125 77.1728C76.5252 77.2985 76.174 77.5159 75.8887 77.8065C75.8303 77.8648 75.7833 77.9335 75.75 78.009V79.8728C75.75 80.8673 75.3549 81.8212 74.6516 82.5244C73.9484 83.2277 72.9946 83.6228 72 83.6228C71.0054 83.6228 70.0516 83.2277 69.3484 82.5244C68.6451 81.8212 68.25 80.8673 68.25 79.8728V77.9978C68.25 73.6778 71.715 71.0378 74.4562 70.0853C76.128 69.5011 77.5393 68.3446 78.4405 66.8202C79.3417 65.2958 79.6747 63.5018 79.3807 61.7556C79.0866 60.0093 78.1845 58.4233 76.8338 57.2781C75.4831 56.1328 73.7708 55.5022 72 55.4978ZM68.25 89.2478C68.25 88.2532 68.6451 87.2994 69.3484 86.5961C70.0516 85.8929 71.0054 85.4978 72 85.4978H72.0375C73.0321 85.4978 73.9859 85.8929 74.6892 86.5961C75.3924 87.2994 75.7875 88.2532 75.7875 89.2478C75.7875 90.2423 75.3924 91.1962 74.6892 91.8994C73.9859 92.6027 73.0321 92.9978 72.0375 92.9978H72C71.0054 92.9978 70.0516 92.6027 69.3484 91.8994C68.6451 91.1962 68.25 90.2423 68.25 89.2478Z" fill="#CCE499"/>
<path d="M181.5 10.247C178.782 10.247 176.174 11.3269 174.252 13.2491C172.33 15.1714 171.25 17.7785 171.25 20.497C171.25 21.8562 170.71 23.1597 169.749 24.1209C168.788 25.082 167.484 25.622 166.125 25.622C164.766 25.622 163.462 25.082 162.501 24.1209C161.54 23.1597 161 21.8562 161 20.497C161.001 16.7334 162.037 13.0426 163.996 9.82914C165.955 6.61565 168.761 4.00348 172.106 2.27891C175.451 0.554335 179.207 -0.21607 182.961 0.0521245C186.715 0.320319 190.323 1.61676 193.389 3.79937C196.455 5.98197 198.861 8.9665 200.343 12.4258C201.825 15.8852 202.327 19.6858 201.792 23.4113C201.258 27.1367 199.708 30.6431 197.313 33.5461C194.918 36.4492 191.77 38.6369 188.214 39.8694C187.684 40.0412 187.204 40.3384 186.815 40.7356C186.735 40.8152 186.67 40.9091 186.625 41.0123V43.5594C186.625 44.9187 186.085 46.2222 185.124 47.1834C184.163 48.1445 182.859 48.6844 181.5 48.6844C180.141 48.6844 178.837 48.1445 177.876 47.1834C176.915 46.2222 176.375 44.9187 176.375 43.5594V40.9969C176.375 35.0929 181.11 31.485 184.857 30.1832C187.142 29.3849 189.07 27.8043 190.302 25.7209C191.534 23.6376 191.989 21.1858 191.587 18.7993C191.185 16.4127 189.952 14.2451 188.106 12.68C186.26 11.1149 183.92 10.2531 181.5 10.247ZM176.375 56.3719C176.375 55.0127 176.915 53.7091 177.876 52.748C178.837 51.7869 180.141 51.2469 181.5 51.2469H181.551C182.91 51.2469 184.214 51.7869 185.175 52.748C186.136 53.7091 186.676 55.0127 186.676 56.3719C186.676 57.7312 186.136 59.0347 185.175 59.9959C184.214 60.957 182.91 61.4969 181.551 61.4969H181.5C180.141 61.4969 178.837 60.957 177.876 59.9959C176.915 59.0347 176.375 57.7312 176.375 56.3719Z" fill="#CCE499"/>
</svg>
