<svg width="8" height="5" viewBox="0 0 8 5" fill="none" xmlns="http://www.w3.org/2000/svg">
<path d="M0.70999 3.29001L3.29999 0.700006C3.3925 0.607303 3.50239 0.533755 3.62337 0.483574C3.74434 0.433392 3.87402 0.407562 4.00499 0.407562C4.13596 0.407562 4.26564 0.433392 4.38661 0.483574C4.50759 0.533755 4.61748 0.607303 4.70999 0.700006L7.29999 3.29001C7.92999 3.92001 7.47999 5.00001 6.58999 5.00001H1.40999C0.51999 5.00001 0.0799904 3.92001 0.70999 3.29001Z" fill="#595758"/>
</svg>
