<svg width="32" height="32" viewBox="0 0 32 32" fill="none" xmlns="http://www.w3.org/2000/svg">
<path d="M24.0496 24.6477V22.16H25.9772C26.076 22.16 26.173 22.1335 26.2581 22.0833C26.3432 22.033 26.4133 21.9609 26.461 21.8743C27.3565 20.2811 27.8761 18.5043 27.9801 16.6796C28.0841 14.8549 27.7699 13.0306 27.0613 11.3458C26.3527 9.66114 25.2685 8.1606 23.8916 6.9588C22.5146 5.75701 20.8813 4.88572 19.1162 4.41146C19.0337 4.38965 18.9472 4.38687 18.8634 4.40337C18.7796 4.41987 18.7006 4.45521 18.6324 4.5067C18.5636 4.55795 18.5078 4.62461 18.4694 4.70136C18.431 4.77811 18.4112 4.86279 18.4115 4.9486V6.22099H13.5886V4.9486C13.5888 4.86321 13.5693 4.77895 13.5316 4.70232C13.494 4.62568 13.4392 4.55875 13.3715 4.5067C13.3033 4.45521 13.2244 4.41987 13.1405 4.40337C13.0567 4.38687 12.9703 4.38965 12.8877 4.41146C11.1219 4.88461 9.48758 5.7552 8.10976 6.95669C6.73194 8.15817 5.64704 9.65876 4.93797 11.3438C4.22891 13.0287 3.91445 14.8535 4.01864 16.6787C4.12282 18.5038 4.6429 20.281 5.5391 21.8743C5.58712 21.9606 5.65724 22.0325 5.74227 22.0828C5.8273 22.133 5.92416 22.1596 6.02291 22.16H7.95434V24.6477C7.95434 24.7271 7.97134 24.8055 8.00419 24.8778C8.03705 24.9501 8.08499 25.0145 8.14481 25.0667C10.3246 26.9584 13.1139 28 16.0001 28C18.8862 28 21.6755 26.9584 23.8553 25.0667C23.9156 25.0147 23.9642 24.9504 23.9977 24.8781C24.0312 24.8059 24.0489 24.7273 24.0496 24.6477ZM23.2877 24.5524C21.2558 26.2856 18.6726 27.2376 16.002 27.2376C13.3313 27.2376 10.7481 26.2856 8.71624 24.5524V21.3981H6.14481C5.33745 19.9256 4.8705 18.2908 4.7783 16.6139C4.6861 14.9371 4.97101 13.2609 5.61206 11.7088C6.25311 10.1566 7.23398 8.76786 8.48254 7.64477C9.7311 6.52168 11.2156 5.69279 12.8267 5.21908V6.98289H19.1581V5.21908C20.7693 5.69279 22.2538 6.52168 23.5023 7.64477C24.7509 8.76786 25.7318 10.1566 26.3728 11.7088C27.0139 13.2609 27.2988 14.9371 27.2066 16.6139C27.1144 18.2908 26.6474 19.9256 25.8401 21.3981H23.2724L23.2877 24.5524Z" fill="#80BC00"/>
<circle cx="16" cy="16" r="15" stroke="#80BC00" stroke-width="2"/>
<path d="M13.7143 16.5714H18.2857V8.82666H13.7143V16.5714ZM14.4762 9.58856H17.5238V15.8095H14.4762V9.58856Z" fill="#80BC00"/>
<path d="M9.9467 9.50098C9.72066 9.50098 9.4997 9.56801 9.31176 9.69359C9.12381 9.81917 8.97733 9.99764 8.89083 10.2065C8.80433 10.4153 8.7817 10.6451 8.82579 10.8668C8.86989 11.0885 8.97874 11.2921 9.13857 11.452C9.2984 11.6118 9.50204 11.7206 9.72373 11.7647C9.94542 11.8088 10.1752 11.7862 10.384 11.6997C10.5929 11.6132 10.7714 11.4667 10.8969 11.2788C11.0225 11.0908 11.0896 10.8699 11.0896 10.6438C11.0896 10.3407 10.9691 10.05 10.7548 9.8357C10.5405 9.62138 10.2498 9.50098 9.9467 9.50098ZM9.9467 11.0248C9.87135 11.0248 9.7977 11.0024 9.73505 10.9606C9.6724 10.9187 9.62357 10.8592 9.59474 10.7896C9.5659 10.72 9.55836 10.6434 9.57306 10.5695C9.58776 10.4956 9.62404 10.4277 9.67732 10.3745C9.7306 10.3212 9.79848 10.2849 9.87237 10.2702C9.94627 10.2555 10.0229 10.263 10.0925 10.2919C10.1621 10.3207 10.2216 10.3696 10.2634 10.4322C10.3053 10.4948 10.3276 10.5685 10.3276 10.6438C10.3276 10.7449 10.2875 10.8418 10.2161 10.9132C10.1446 10.9846 10.0477 11.0248 9.9467 11.0248Z" fill="#80BC00"/>
<path d="M8.46854 15.4095C8.2425 15.4095 8.02154 15.4766 7.8336 15.6021C7.64566 15.7277 7.49918 15.9062 7.41268 16.115C7.32618 16.3239 7.30355 16.5537 7.34764 16.7754C7.39174 16.9971 7.50059 17.2007 7.66042 17.3605C7.82025 17.5204 8.02389 17.6292 8.24558 17.6733C8.46727 17.7174 8.69706 17.6948 8.90589 17.6083C9.11472 17.5218 9.29321 17.3753 9.41879 17.1873C9.54437 16.9994 9.6114 16.7784 9.6114 16.5524C9.6114 16.2493 9.49099 15.9586 9.27666 15.7443C9.06234 15.5299 8.77164 15.4095 8.46854 15.4095ZM8.46854 16.9334C8.39319 16.9334 8.31954 16.911 8.25689 16.8692C8.19425 16.8273 8.14542 16.7678 8.11658 16.6982C8.08775 16.6286 8.08021 16.552 8.09491 16.4781C8.10961 16.4042 8.14589 16.3363 8.19917 16.283C8.25244 16.2298 8.32032 16.1935 8.39422 16.1788C8.46811 16.1641 8.54471 16.1716 8.61432 16.2004C8.68393 16.2293 8.74343 16.2781 8.78529 16.3407C8.82715 16.4034 8.84949 16.4771 8.84949 16.5524C8.84949 16.6534 8.80936 16.7503 8.73791 16.8218C8.66647 16.8932 8.56957 16.9334 8.46854 16.9334Z" fill="#80BC00"/>
<path d="M12.8495 21.6686C12.6235 21.6686 12.4025 21.7356 12.2146 21.8612C12.0266 21.9868 11.8802 22.1652 11.7937 22.3741C11.7072 22.5829 11.6845 22.8127 11.7286 23.0344C11.7727 23.2561 11.8816 23.4597 12.0414 23.6196C12.2012 23.7794 12.4049 23.8882 12.6266 23.9323C12.8483 23.9764 13.078 23.9538 13.2869 23.8673C13.4957 23.7808 13.6742 23.6343 13.7998 23.4464C13.9253 23.2584 13.9924 23.0375 13.9924 22.8114C13.9924 22.5083 13.872 22.2176 13.6576 22.0033C13.4433 21.789 13.1526 21.6686 12.8495 21.6686ZM12.8495 23.1924C12.7742 23.1924 12.7005 23.1701 12.6379 23.1282C12.5752 23.0863 12.5264 23.0268 12.4976 22.9572C12.4687 22.8876 12.4612 22.811 12.4759 22.7371C12.4906 22.6632 12.5269 22.5953 12.5801 22.5421C12.6334 22.4888 12.7013 22.4525 12.7752 22.4378C12.8491 22.4231 12.9257 22.4306 12.9953 22.4595C13.0649 22.4883 13.1244 22.5371 13.1663 22.5998C13.2081 22.6624 13.2305 22.7361 13.2305 22.8114C13.2305 22.9125 13.1903 23.0094 13.1189 23.0808C13.0475 23.1522 12.9506 23.1924 12.8495 23.1924Z" fill="#80BC00"/>
<path d="M23.2152 10.6667C23.2152 10.4406 23.1482 10.2197 23.0226 10.0317C22.897 9.8438 22.7185 9.69732 22.5097 9.61082C22.3009 9.52432 22.0711 9.50166 21.8494 9.54576C21.6277 9.58986 21.4241 9.69871 21.2642 9.85854C21.1044 10.0184 20.9956 10.222 20.9515 10.4437C20.9074 10.6654 20.93 10.8952 21.0165 11.104C21.103 11.3129 21.2495 11.4913 21.4374 11.6169C21.6254 11.7425 21.8463 11.8095 22.0724 11.8095C22.3755 11.8095 22.6662 11.6891 22.8805 11.4748C23.0948 11.2605 23.2152 10.9698 23.2152 10.6667ZM22.0724 11.0476C21.997 11.0476 21.9234 11.0253 21.8607 10.9834C21.7981 10.9416 21.7492 10.8821 21.7204 10.8125C21.6916 10.7428 21.684 10.6663 21.6987 10.5924C21.7134 10.5185 21.7497 10.4506 21.803 10.3973C21.8563 10.344 21.9241 10.3077 21.998 10.293C22.0719 10.2783 22.1485 10.2859 22.2181 10.3147C22.2878 10.3435 22.3473 10.3924 22.3891 10.455C22.431 10.5177 22.4533 10.5913 22.4533 10.6667C22.4474 10.7664 22.4026 10.8598 22.3285 10.9268C22.2544 10.9937 22.1569 11.0289 22.0571 11.0248L22.0724 11.0476Z" fill="#80BC00"/>
<path d="M23.5314 15.4095C23.3054 15.4095 23.0844 15.4766 22.8965 15.6021C22.7085 15.7277 22.562 15.9062 22.4755 16.115C22.389 16.3239 22.3664 16.5537 22.4105 16.7754C22.4546 16.9971 22.5634 17.2007 22.7233 17.3605C22.8831 17.5204 23.0867 17.6292 23.3084 17.6733C23.5301 17.7174 23.7599 17.6948 23.9688 17.6083C24.1776 17.5218 24.3561 17.3753 24.4817 17.1873C24.6072 16.9994 24.6743 16.7784 24.6743 16.5524C24.6743 16.2493 24.5539 15.9586 24.3395 15.7443C24.1252 15.5299 23.8345 15.4095 23.5314 15.4095ZM23.5314 16.9334C23.4561 16.9334 23.3824 16.911 23.3198 16.8692C23.2571 16.8273 23.2083 16.7678 23.1795 16.6982C23.1506 16.6286 23.1431 16.552 23.1578 16.4781C23.1725 16.4042 23.2088 16.3363 23.262 16.283C23.3153 16.2298 23.3832 16.1935 23.4571 16.1788C23.531 16.1641 23.6076 16.1716 23.6772 16.2004C23.7468 16.2293 23.8063 16.2781 23.8482 16.3407C23.89 16.4034 23.9124 16.4771 23.9124 16.5524C23.9124 16.6534 23.8722 16.7503 23.8008 16.8218C23.7293 16.8932 23.6324 16.9334 23.5314 16.9334Z" fill="#80BC00"/>
<path d="M19.1581 21.6686C18.9321 21.6686 18.7111 21.7356 18.5232 21.8612C18.3352 21.9868 18.1888 22.1652 18.1023 22.3741C18.0158 22.5829 17.9931 22.8127 18.0372 23.0344C18.0813 23.2561 18.1902 23.4597 18.35 23.6196C18.5098 23.7794 18.7135 23.8882 18.9352 23.9323C19.1569 23.9764 19.3866 23.9538 19.5955 23.8673C19.8043 23.7808 19.9828 23.6343 20.1084 23.4464C20.2339 23.2584 20.301 23.0375 20.301 22.8114C20.301 22.5083 20.1806 22.2176 19.9662 22.0033C19.7519 21.789 19.4612 21.6686 19.1581 21.6686ZM19.1581 23.1924C19.0828 23.1924 19.0091 23.1701 18.9465 23.1282C18.8838 23.0863 18.835 23.0268 18.8062 22.9572C18.7773 22.8876 18.7698 22.811 18.7845 22.7371C18.7992 22.6632 18.8355 22.5953 18.8887 22.5421C18.942 22.4888 19.0099 22.4525 19.0838 22.4378C19.1577 22.4231 19.2343 22.4306 19.3039 22.4595C19.3735 22.4883 19.433 22.5371 19.4749 22.5998C19.5167 22.6624 19.5391 22.7361 19.5391 22.8114C19.5391 22.9125 19.4989 23.0094 19.4275 23.0808C19.356 23.1522 19.2592 23.1924 19.1581 23.1924Z" fill="#80BC00"/>
</svg>
