<svg width="24" height="24" viewBox="0 0 24 24" fill="none" xmlns="http://www.w3.org/2000/svg">
<path d="M19.1804 17.5044C20.6276 15.6461 21.3415 13.3209 21.1863 10.9707C21.0311 8.62056 20.0176 6.40938 18.3386 4.7576C16.6597 3.10582 14.4322 2.12863 12.0799 2.01183C9.72747 1.89502 7.41418 2.64675 5.57983 4.12408C3.74548 5.60141 2.51798 7.70132 2.13073 10.0245C1.74347 12.3478 2.22346 14.7323 3.47943 16.7248C4.73541 18.7172 6.67978 20.1786 8.94286 20.8312C11.2059 21.4837 13.6299 21.2819 15.7539 20.264C15.8618 20.6436 16.062 20.9905 16.3367 21.2738C16.6114 21.5572 16.952 21.768 17.3281 21.8876C17.7041 22.0072 18.104 22.0318 18.4919 21.9592C18.8797 21.8866 19.2436 21.719 19.5509 21.4715C19.8583 21.224 20.0995 20.9042 20.2531 20.5407C20.4067 20.1772 20.4679 19.7813 20.4312 19.3884C20.3946 18.9955 20.2611 18.6178 20.0429 18.2891C19.8246 17.9603 19.5283 17.6907 19.1804 17.5044ZM11.5753 2.99784C11.9565 2.99784 12.3291 3.11087 12.646 3.32263C12.9629 3.53438 13.2099 3.83536 13.3558 4.1875C13.5017 4.53964 13.5398 4.92713 13.4655 5.30096C13.3911 5.67479 13.2076 6.01818 12.938 6.28769C12.6685 6.55721 12.3251 6.74075 11.9513 6.81511C11.5775 6.88947 11.19 6.85131 10.8378 6.70545C10.4857 6.55959 10.1847 6.31258 9.97297 5.99566C9.76121 5.67874 9.64818 5.30615 9.64818 4.92499C9.64818 4.67192 9.69803 4.42132 9.79488 4.1875C9.89173 3.95369 10.0337 3.74124 10.2126 3.56229C10.3916 3.38334 10.604 3.24139 10.8378 3.14454C11.0717 3.04769 11.3223 2.99784 11.5753 2.99784ZM11.5753 15.4162C10.8126 15.4162 10.0671 15.1899 9.43305 14.766C8.79901 14.3421 8.305 13.7396 8.01355 13.0348C7.7221 12.33 7.64631 11.5545 7.79578 10.8066C7.94524 10.0587 8.31325 9.37194 8.8532 8.83328C9.39315 8.29461 10.0808 7.92825 10.8291 7.78057C11.5773 7.6329 12.3526 7.71054 13.0567 8.00367C13.7608 8.29681 14.3621 8.79225 14.7845 9.4273C15.207 10.0623 15.4315 10.8084 15.4296 11.5711C15.4299 12.0774 15.3304 12.5787 15.1369 13.0465C14.9433 13.5142 14.6594 13.9392 14.3014 14.2972C13.9434 14.6552 13.5184 14.9391 13.0507 15.1327C12.5829 15.3263 12.0816 15.4257 11.5753 15.4254V15.4162Z" fill="#595758"/>
</svg>
